^C:\USERS\RICARDO_MOTA\DOCUMENTS\VISUAL STUDIO 2017\PROJECTS\GAMASNAP-BOOTLOADER\GAMASNAP-BOOTLOADER\DEBUG\.NETFRAMEWORK,VERSION=V4.0.ASSEMBLYATTRIBUTES.OBJ|C:\USERS\RICARDO_MOTA\DOCUMENTS\VISUAL STUDIO 2017\PROJECTS\GAMASNAP-BOOTLOADER\GAMASNAP-BOOTLOADER\DEBUG\MAIN.OBJ|C:\USERS\RICARDO_MOTA\DOCUMENTS\VISUAL STUDIO 2017\PROJECTS\GAMASNAP-BOOTLOADER\GAMASNAP-BOOTLOADER\DEBUG\TSERIAL.OBJ
C:\USERS\RICARDO_MOTA\DOCUMENTS\VISUAL STUDIO 2017\PROJECTS\GAMASNAP-BOOTLOADER\DEBUG\GAMASNAP-BOOTLOADER.EXE
C:\USERS\RICARDO_MOTA\DOCUMENTS\VISUAL STUDIO 2017\PROJECTS\GAMASNAP-BOOTLOADER\DEBUG\GAMASNAP-BOOTLOADER.PDB
